05-Importing and Cleaning Data
…
# read in drought dataset
library(readr)
df <- read_csv("CA Drought Data 20150925-20170925.csv", 
    col_types = cols(ReleaseDate = col_date(format = "%Y%m%d"), 
        ValidEnd = col_date(format = "%Y-%m-%d"), 
        ValidStart = col_date(format = "%Y-%m-%d")))

Examining the dataset

Lets view the dataset by typing in its name:

df

## # A tibble: 6,090 x 13
##    ReleaseDate  FIPS         County State  None    D0    D1    D2    D3
##         <date> <chr>          <chr> <chr> <dbl> <dbl> <dbl> <dbl> <dbl>
##  1  2017-09-19 06001 Alameda County    CA   100     0     0     0     0
##  2  2017-09-12 06001 Alameda County    CA   100     0     0     0     0
##  3  2017-09-05 06001 Alameda County    CA   100     0     0     0     0
##  4  2017-08-29 06001 Alameda County    CA   100     0     0     0     0
##  5  2017-08-22 06001 Alameda County    CA   100     0     0     0     0
##  6  2017-08-15 06001 Alameda County    CA   100     0     0     0     0
##  7  2017-08-08 06001 Alameda County    CA   100     0     0     0     0
##  8  2017-08-01 06001 Alameda County    CA   100     0     0     0     0
##  9  2017-07-25 06001 Alameda County    CA   100     0     0     0     0
## 10  2017-07-18 06001 Alameda County    CA   100     0     0     0     0
## # ... with 6,080 more rows, and 4 more variables: D4 <dbl>,
## #   ValidStart <date>, ValidEnd <date>, StatisticFormatID <int>
…
The columns from None to D4 always add up to 100%. Since we are not going to plot the None column, we can drop it.

Lets keep just the rows we want using select in dplyr. Type in the code below (notice how the code below changes the name for column ValidStart at the same time):

# select important rows
df_levels <- df %>% select(County, Date = ValidStart, D0:D4)

Some dplyr practice

Select the rows such that D4 is 100.

df_levels %>% filter(D4 == 100)

## # A tibble: 618 x 7
##           County       Date    D0    D1    D2    D3    D4
##            <chr>     <date> <dbl> <dbl> <dbl> <dbl> <dbl>
##  1 Alpine County 2016-03-08     0     0     0     0   100
##  2 Alpine County 2016-03-01     0     0     0     0   100
##  3 Alpine County 2016-02-23     0     0     0     0   100
##  4 Alpine County 2016-02-16     0     0     0     0   100
##  5 Alpine County 2016-02-09     0     0     0     0   100
##  6 Alpine County 2016-02-02     0     0     0     0   100
##  7 Alpine County 2016-01-26     0     0     0     0   100
##  8 Alpine County 2016-01-19     0     0     0     0   100
##  9 Alpine County 2016-01-12     0     0     0     0   100
## 10 Alpine County 2016-01-05     0     0     0     0   100
## # ... with 608 more rows

Which counties experienced 100% land area in D4 at any time?

df_levels %>% filter(D4 == 100) %>%
    distinct(County)

## # A tibble: 22 x 1
##              County
##               <chr>
##  1    Alpine County
##  2    Amador County
##  3 Calaveras County
##  4 El Dorado County
##  5    Fresno County
##  6     Kings County
##  7    Madera County
##  8  Mariposa County
##  9    Merced County
## 10      Mono County
## # ... with 12 more rows

Which county experienced the most number of weeks with 100% land area in D4?

df_levels %>% 
    filter(D4 == 100) %>% 
    group_by(County) %>% 
    summarize(count = n()) %>%
    arrange(desc(count))

## # A tibble: 22 x 2
##                  County count
##                   <chr> <int>
##  1 Santa Barbara County    68
##  2       Ventura County    68
##  3        Fresno County    30
##  4         Kings County    30
##  5        Madera County    30
##  6      Mariposa County    30
##  7        Merced County    30
##  8   San Joaquin County    30
##  9    Stanislaus County    30
## 10        Tulare County    30
## # ... with 12 more rows

For the date 2017-07-18, return the entries in descending order of D0.

df_levels %>% filter(Date == "2017-07-18") %>% arrange(desc(D0))

## # A tibble: 58 x 7
##                    County       Date    D0    D1    D2    D3    D4
##                     <chr>     <date> <dbl> <dbl> <dbl> <dbl> <dbl>
##  1 San Luis Obispo County 2017-07-18 87.84  8.13  0.00     0     0
##  2      San Benito County 2017-07-18 83.13  0.00  0.00     0     0
##  3       San Diego County 2017-07-18 82.60 17.40  0.00     0     0
##  4       Riverside County 2017-07-18 51.73  1.70  0.00     0     0
##  5     Los Angeles County 2017-07-18 46.36 52.23  1.41     0     0
##  6            Kern County 2017-07-18 35.23  3.50  0.00     0     0
##  7            Inyo County 2017-07-18 26.48  0.00  0.00     0     0
##  8        Monterey County 2017-07-18 25.95  0.00  0.00     0     0
##  9          Fresno County 2017-07-18 21.45  0.00  0.00     0     0
## 10  San Bernardino County 2017-07-18 16.53  1.09  0.00     0     0
## # ... with 48 more rows
…
